// Points
Point(1) = {1.0,-0.0, 0.0, 1.0 };
Point(2) = {0.998459,0.000224, 0.0, 1.0 };
Point(3) = {0.993844,0.000891, 0.0, 1.0 };
Point(4) = {0.986185,0.00199, 0.0, 1.0 };
Point(5) = {0.975528,0.003501, 0.0, 1.0 };
Point(6) = {0.96194,0.005399, 0.0, 1.0 };
Point(7) = {0.945503,0.007651, 0.0, 1.0 };
Point(8) = {0.92632,0.010221, 0.0, 1.0 };
Point(9) = {0.904508,0.013071, 0.0, 1.0 };
Point(10) = {0.880203,0.016158, 0.0, 1.0 };
Point(11) = {0.853553,0.019438, 0.0, 1.0 };
Point(12) = {0.824724,0.022869, 0.0, 1.0 };
Point(13) = {0.793893,0.026405, 0.0, 1.0 };
Point(14) = {0.761249,0.03, 0.0, 1.0 };
Point(15) = {0.726995,0.03361, 0.0, 1.0 };
Point(16) = {0.691342,0.037188, 0.0, 1.0 };
Point(17) = {0.654508,0.040686, 0.0, 1.0 };
Point(18) = {0.616723,0.044055, 0.0, 1.0 };
Point(19) = {0.578217,0.047242, 0.0, 1.0 };
Point(20) = {0.53923,0.050196, 0.0, 1.0 };
Point(21) = {0.5,0.052862, 0.0, 1.0 };
Point(22) = {0.46077,0.055184, 0.0, 1.0 };
Point(23) = {0.421783,0.057108, 0.0, 1.0 };
Point(24) = {0.383277,0.058582, 0.0, 1.0 };
Point(25) = {0.345492,0.059557, 0.0, 1.0 };
Point(26) = {0.308658,0.059988, 0.0, 1.0 };
Point(27) = {0.273005,0.059841, 0.0, 1.0 };
Point(28) = {0.238751,0.059088, 0.0, 1.0 };
Point(29) = {0.206107,0.057712, 0.0, 1.0 };
Point(30) = {0.175276,0.055708, 0.0, 1.0 };
Point(31) = {0.146447,0.053083, 0.0, 1.0 };
Point(32) = {0.119797,0.049854, 0.0, 1.0 };
Point(33) = {0.095492,0.046049, 0.0, 1.0 };
Point(34) = {0.07368,0.041705, 0.0, 1.0 };
Point(35) = {0.054497,0.036867, 0.0, 1.0 };
Point(36) = {0.03806,0.03158, 0.0, 1.0 };
Point(37) = {0.024472,0.025893, 0.0, 1.0 };
Point(38) = {0.013815,0.019854, 0.0, 1.0 };
Point(39) = {0.006156,0.013503, 0.0, 1.0 };
Point(40) = {0.001541,0.006877, 0.0, 1.0 };
Point(41) = {0.0,0.0, 0.0, 1.0 };
Point(42) = {0.001541,-0.006877, 0.0, 1.0 };
Point(43) = {0.006156,-0.013503, 0.0, 1.0 };
Point(44) = {0.013815,-0.019854, 0.0, 1.0 };
Point(45) = {0.024472,-0.025893, 0.0, 1.0 };
Point(46) = {0.03806,-0.03158, 0.0, 1.0 };
Point(47) = {0.054497,-0.036867, 0.0, 1.0 };
Point(48) = {0.07368,-0.041705, 0.0, 1.0 };
Point(49) = {0.095492,-0.046049, 0.0, 1.0 };
Point(50) = {0.119797,-0.049854, 0.0, 1.0 };
Point(51) = {0.146447,-0.053083, 0.0, 1.0 };
Point(52) = {0.175276,-0.055708, 0.0, 1.0 };
Point(53) = {0.206107,-0.057712, 0.0, 1.0 };
Point(54) = {0.238751,-0.059088, 0.0, 1.0 };
Point(55) = {0.273005,-0.059841, 0.0, 1.0 };
Point(56) = {0.308658,-0.059988, 0.0, 1.0 };
Point(57) = {0.345492,-0.059557, 0.0, 1.0 };
Point(58) = {0.383277,-0.058582, 0.0, 1.0 };
Point(59) = {0.421783,-0.057108, 0.0, 1.0 };
Point(60) = {0.46077,-0.055184, 0.0, 1.0 };
Point(61) = {0.5,-0.052862, 0.0, 1.0 };
Point(62) = {0.53923,-0.050196, 0.0, 1.0 };
Point(63) = {0.578217,-0.047242, 0.0, 1.0 };
Point(64) = {0.616723,-0.044055, 0.0, 1.0 };
Point(65) = {0.654508,-0.040686, 0.0, 1.0 };
Point(66) = {0.691342,-0.037188, 0.0, 1.0 };
Point(67) = {0.726995,-0.03361, 0.0, 1.0 };
Point(68) = {0.761249,-0.03, 0.0, 1.0 };
Point(69) = {0.793893,-0.026405, 0.0, 1.0 };
Point(70) = {0.824724,-0.022869, 0.0, 1.0 };
Point(71) = {0.853553,-0.019438, 0.0, 1.0 };
Point(72) = {0.880203,-0.016158, 0.0, 1.0 };
Point(73) = {0.904508,-0.013071, 0.0, 1.0 };
Point(74) = {0.92632,-0.010221, 0.0, 1.0 };
Point(75) = {0.945503,-0.007651, 0.0, 1.0 };
Point(76) = {0.96194,-0.005399, 0.0, 1.0 };
Point(77) = {0.975528,-0.003501, 0.0, 1.0 };
Point(78) = {0.986185,-0.00199, 0.0, 1.0 };
Point(79) = {0.993844,-0.000891, 0.0, 1.0 };
Point(80) = {0.998459,-0.000224, 0.0, 1.0 };
// airfoil spline
Spline(1) = {1,2,3,4,5,6,7,8,9,10,11,12,13,14,15,16,17,18,19,20,21,22,23,24,25,26,27,28,29,30,31,32,33,34,35,36,37,38,39,40,41};
Spline(2) = {41,42,43,44,45,46,47,48,49,50,51,52,53,54,55,56,57,58,59,60,61,62,63,64,65,66,67,68,69,70,71,72,73,74,75,76,77,78,79,80,1};
//+
Point(81) = {-10, -10, 0, 1.0};
Point(82) = {10, -10, 0, 1.0};
Point(83) = {10, 10, 0, 1.0};
Point(84) = {-10, 10, 0, 1.0};
//+
Point(85) = {-100, -100, 0, 1.0};
Point(86) = {100, -100, 0, 1.0};
Point(87) = {100, 100, 0, 1.0};
Point(88) = {-100, 100, 0, 1.0};
//+
Line(3) = {81, 82};
Line(4) = {82, 83};
Line(5) = {83, 84};
Line(6) = {84, 81};
//+
Line(7) = {85, 86};
Line(8) = {86, 87};
Line(9) = {87, 88};
Line(10) = {88, 85};
//+
Curve Loop(1) = {1, 2};
Curve Loop(2) = {6, 3, 4, 5};
Plane Surface(1) = {1, 2};
//+
Curve Loop(3) = {10, 7, 8, 9};
Plane Surface(2) = {2, 3};
//+
Transfinite Curve {6, 5, 4, 3} = 20 Using Progression 1;
Transfinite Curve {1, 2} = 150 Using Bump 0.3;
//+
Transfinite Curve {10, 9, 8, 7} = 10 Using Progression 1;
//+
Physical Curve("farfield", 7) = {10, 9, 8, 7};
Physical Curve("airfoil", 8) = {1, 2};
Physical Surface("fluid", 11) = {1, 2};
//+
Field[1] = BoundaryLayer;
Field[1].CurvesList = {1, 2};
Field[1].FanPointsList = {1};
Field[1].FanPointsSizesList = {21};
Field[1].Size = 0.005;
Field[1].SizeFar = 0.05;
Field[1].Thickness = 0.1;
BoundaryLayer Field = 1;
