Point(1) = {1.0,-0.0, 0.0, 1.0 };
Point(2) = {0.998474,0.000326, 0.0, 1.0 };
Point(3) = {0.993903,0.001298, 0.0, 1.0 };
Point(4) = {0.986314,0.002896, 0.0, 1.0 };
Point(5) = {0.975752,0.005092, 0.0, 1.0 };
Point(6) = {0.962276,0.007845, 0.0, 1.0 };
Point(7) = {0.945966,0.011105, 0.0, 1.0 };
Point(8) = {0.926917,0.014814, 0.0, 1.0 };
Point(9) = {0.90524,0.01891, 0.0, 1.0 };
Point(10) = {0.881064,0.023324, 0.0, 1.0 };
Point(11) = {0.854532,0.027985, 0.0, 1.0 };
Point(12) = {0.825802,0.032822, 0.0, 1.0 };
Point(13) = {0.795047,0.03776, 0.0, 1.0 };
Point(14) = {0.762452,0.042726, 0.0, 1.0 };
Point(15) = {0.728216,0.047648, 0.0, 1.0 };
Point(16) = {0.692545,0.052453, 0.0, 1.0 };
Point(17) = {0.655659,0.057071, 0.0, 1.0 };
Point(18) = {0.617783,0.061432, 0.0, 1.0 };
Point(19) = {0.579153,0.065468, 0.0, 1.0 };
Point(20) = {0.540006,0.069113, 0.0, 1.0 };
Point(21) = {0.500587,0.072303, 0.0, 1.0 };
Point(22) = {0.461143,0.074977, 0.0, 1.0 };
Point(23) = {0.421921,0.077082, 0.0, 1.0 };
Point(24) = {0.383032,0.078547, 0.0, 1.0 };
Point(25) = {0.34468,0.07918, 0.0, 1.0 };
Point(26) = {0.307289,0.07893, 0.0, 1.0 };
Point(27) = {0.271106,0.077795, 0.0, 1.0 };
Point(28) = {0.236371,0.07579, 0.0, 1.0 };
Point(29) = {0.203313,0.072945, 0.0, 1.0 };
Point(30) = {0.172151,0.069308, 0.0, 1.0 };
Point(31) = {0.143089,0.06494, 0.0, 1.0 };
Point(32) = {0.116313,0.059917, 0.0, 1.0 };
Point(33) = {0.091996,0.054325, 0.0, 1.0 };
Point(34) = {0.070289,0.048257, 0.0, 1.0 };
Point(35) = {0.051324,0.041808, 0.0, 1.0 };
Point(36) = {0.035214,0.035076, 0.0, 1.0 };
Point(37) = {0.022051,0.028152, 0.0, 1.0 };
Point(38) = {0.011907,0.02112, 0.0, 1.0 };
Point(39) = {0.004833,0.014049, 0.0, 1.0 };
Point(40) = {0.00086,0.006997, 0.0, 1.0 };
Point(41) = {0.0,0.0, 0.0, 1.0 };
Point(42) = {0.002223,-0.006689, 0.0, 1.0 };
Point(43) = {0.007479,-0.012828, 0.0, 1.0 };
Point(44) = {0.015723,-0.018404, 0.0, 1.0 };
Point(45) = {0.026892,-0.023408, 0.0, 1.0 };
Point(46) = {0.040906,-0.027826, 0.0, 1.0 };
Point(47) = {0.057669,-0.031651, 0.0, 1.0 };
Point(48) = {0.077071,-0.034878, 0.0, 1.0 };
Point(49) = {0.098987,-0.037507, 0.0, 1.0 };
Point(50) = {0.123281,-0.039546, 0.0, 1.0 };
Point(51) = {0.149805,-0.041012, 0.0, 1.0 };
Point(52) = {0.178401,-0.041933, 0.0, 1.0 };
Point(53) = {0.208902,-0.042343, 0.0, 1.0 };
Point(54) = {0.241131,-0.04229, 0.0, 1.0 };
Point(55) = {0.274904,-0.041827, 0.0, 1.0 };
Point(56) = {0.310028,-0.041016, 0.0, 1.0 };
Point(57) = {0.346303,-0.039923, 0.0, 1.0 };
Point(58) = {0.383522,-0.038617, 0.0, 1.0 };
Point(59) = {0.421645,-0.037134, 0.0, 1.0 };
Point(60) = {0.460398,-0.035388, 0.0, 1.0 };
Point(61) = {0.499413,-0.033414, 0.0, 1.0 };
Point(62) = {0.538453,-0.031267, 0.0, 1.0 };
Point(63) = {0.577282,-0.028997, 0.0, 1.0 };
Point(64) = {0.615662,-0.026651, 0.0, 1.0 };
Point(65) = {0.653358,-0.024269, 0.0, 1.0 };
Point(66) = {0.690139,-0.021884, 0.0, 1.0 };
Point(67) = {0.725775,-0.019529, 0.0, 1.0 };
Point(68) = {0.760046,-0.017226, 0.0, 1.0 };
Point(69) = {0.792738,-0.014999, 0.0, 1.0 };
Point(70) = {0.823646,-0.012865, 0.0, 1.0 };
Point(71) = {0.852575,-0.010842, 0.0, 1.0 };
Point(72) = {0.879342,-0.008946, 0.0, 1.0 };
Point(73) = {0.903777,-0.007191, 0.0, 1.0 };
Point(74) = {0.925723,-0.005594, 0.0, 1.0 };
Point(75) = {0.94504,-0.004169, 0.0, 1.0 };
Point(76) = {0.961603,-0.002931, 0.0, 1.0 };
Point(77) = {0.975305,-0.001896, 0.0, 1.0 };
Point(78) = {0.986056,-0.001076, 0.0, 1.0 };
Point(79) = {0.993785,-0.000481, 0.0, 1.0 };
Point(80) = {0.998444,-0.000121, 0.0, 1.0 };
// airfoil spline
Spline(1) = {1,2,3,4,5,6,7,8,9,10,11,12,13,14,15,16,17,18,19,20,21,22,23,24,25,26,27,28,29,30,31,32,33,34,35,36,37,38,39,40,41};
Spline(2) = {41,42,43,44,45,46,47,48,49,50,51,52,53,54,55,56,57,58,59,60,61,62,63,64,65,66,67,68,69,70,71,72,73,74,75,76,77,78,79,80,1};
//+
Point(81) = {-25, -25, 0, 1.0};
Point(82) = {25, -25, 0, 1.0};
Point(83) = {25, 25, 0, 1.0};
Point(84) = {-25, 25, 0, 1.0};
//+
Line(3) = {81, 82};
Line(4) = {82, 83};
Line(5) = {83, 84};
Line(6) = {84, 81};
//+
Curve Loop(1) = {1, 2};
Curve Loop(2) = {6, 3, 4, 5};
Plane Surface(1) = {1, 2};
//+
Transfinite Curve {6, 5, 4, 3} = 20 Using Progression 1;
Transfinite Curve {1, 2} = 150 Using Bump 0.3;

Physical Curve("farfield", 7) = {6, 5, 4, 3};
Physical Curve("airfoil", 8) = {1, 2};
Physical Surface("fluid", 9) = {1};
//+
Field[1] = BoundaryLayer;
Field[1].CurvesList = {1, 2};
Field[1].FanPointsList = {1};
Field[1].FanPointsSizesList = {21};
Field[1].Size = 0.005;
Field[1].SizeFar = 0.05;
Field[1].Thickness = 0.1;
Field[1].Quads = 1;
BoundaryLayer Field = 1;
