eta,u
0.000000000000000000e+00,9.440721773077735719e-21
1.010101010101010083e-01,3.354028215724361855e-02
2.020202020202020166e-01,6.707721660653025164e-02
3.030303030303030387e-01,1.006021981541982829e-01
4.040404040404040331e-01,1.341009002312656129e-01
5.050505050505050830e-01,1.675533108152374995e-01
6.060606060606060774e-01,2.009338004765358621e-01
7.070707070707070718e-01,2.342112328416433575e-01
8.080808080808080662e-01,2.673491272497145466e-01
9.090909090909090606e-01,3.003058825970409407e-01
1.010101010101010166e+00,3.330350702691041165e-01
1.111111111111111160e+00,3.654858026192562281e-01
1.212121212121212155e+00,3.976031816477495484e-01
1.313131313131313149e+00,4.293288303651796034e-01
1.414141414141414144e+00,4.606015068128392898e-01
1.515151515151515138e+00,4.913577979061208856e-01
1.616161616161616132e+00,5.215328872390324610e-01
1.717171717171717127e+00,5.510613878369408081e-01
1.818181818181818121e+00,5.798782276931037094e-01
1.919191919191919116e+00,6.079195729138686666e-01
2.020202020202020332e+00,6.351237705816162871e-01
2.121212121212121104e+00,6.614322911817398509e-01
2.222222222222222321e+00,6.867906487821957562e-01
2.323232323232323093e+00,7.111492762363536002e-01
2.424242424242424310e+00,7.344643326086550683e-01
2.525252525252525082e+00,7.566984208660580968e-01
2.626262626262626299e+00,7.778211956577094632e-01
2.727272727272727071e+00,7.978098436897564927e-01
2.828282828282828287e+00,8.166494227067260248e-01
2.929292929292929060e+00,8.343330492787763841e-01
3.030303030303030276e+00,8.508619302836236686e-01
3.131313131313131048e+00,8.662452379465578334e-01
3.232323232323232265e+00,8.804998333240582342e-01
3.333333333333333481e+00,8.936498479427380515e-01
3.434343434343434254e+00,9.057261377029535154e-01
3.535353535353535470e+00,9.167656269186159612e-01
3.636363636363636243e+00,9.268105633241747743e-01
3.737373737373737459e+00,9.359077069185455233e-01
3.838383838383838231e+00,9.441074765717289985e-01
3.939393939393939448e+00,9.514630783882044307e-01
4.040404040404040664e+00,9.580296389518744293e-01
4.141414141414140992e+00,9.638633648687073840e-01
4.242424242424242209e+00,9.690207476124322872e-01
4.343434343434343425e+00,9.735578297300843120e-01
4.444444444444444642e+00,9.775295451570535921e-01
4.545454545454544970e+00,9.809891429071719848e-01
4.646464646464646187e+00,9.839876999150689585e-01
4.747474747474747403e+00,9.865737254701912873e-01
4.848484848484848619e+00,9.887928566239496675e-01
4.949494949494949836e+00,9.906876412732449344e-01
5.050505050505050164e+00,9.922974033933300575e-01
5.151515151515151381e+00,9.936581831476634097e-01
5.252525252525252597e+00,9.948027433502789618e-01
5.353535353535353813e+00,9.957606329804182810e-01
5.454545454545454142e+00,9.965582981125271633e-01
5.555555555555555358e+00,9.972192306749892987e-01
5.656565656565656575e+00,9.977641458259659535e-01
5.757575757575757791e+00,9.982111793673921207e-01
5.858585858585858119e+00,9.985760974408363078e-01
5.959595959595959336e+00,9.988725116968724116e-01
6.060606060606060552e+00,9.991120941438530467e-01
6.161616161616161769e+00,9.993047869111915116e-01
6.262626262626262097e+00,9.994590031638765915e-01
6.363636363636363313e+00,9.995818163455855165e-01
6.464646464646464530e+00,9.996791357830779878e-01
6.565656565656565746e+00,9.997558674386252120e-01
6.666666666666666963e+00,9.998160592416323045e-01
6.767676767676767291e+00,9.998630309633161906e-01
6.868686868686868507e+00,9.998994890223901200e-01
6.969696969696969724e+00,9.999276269322316946e-01
7.070707070707070940e+00,9.999492123307401892e-01
7.171717171717171269e+00,9.999656616845320478e-01
7.272727272727272485e+00,9.999781038415529455e-01
7.373737373737373701e+00,9.999874336329535041e-01
7.474747474747474918e+00,9.999943567080005202e-01
7.575757575757575246e+00,9.999994267357443789e-01
7.676767676767676463e+00,1.000003076033785465e+00
7.777777777777777679e+00,1.000005640596070444e+00
7.878787878787878896e+00,1.000007380395065759e+00
7.979797979797979224e+00,1.000008495734405090e+00
8.080808080808081328e+00,1.000009140330387680e+00
8.181818181818181657e+00,1.000009431707620244e+00
8.282828282828281985e+00,1.000009459407689594e+00
8.383838383838384090e+00,1.000009291431331437e+00
8.484848484848484418e+00,1.000008979264699560e+00
8.585858585858586522e+00,1.000008561779155869e+00
8.686868686868686851e+00,1.000008068241206471e+00
8.787878787878787179e+00,1.000007520624290658e+00
8.888888888888889284e+00,1.000006935376383632e+00
8.989898989898989612e+00,1.000006324766024468e+00
9.090909090909089940e+00,1.000005697903646018e+00
9.191919191919192045e+00,1.000005061514163573e+00
9.292929292929292373e+00,1.000004420519946091e+00
9.393939393939394478e+00,1.000003778479870986e+00
9.494949494949494806e+00,1.000003137919567742e+00
9.595959595959595134e+00,1.000002500579642462e+00
9.696969696969697239e+00,1.000001867602231087e+00
9.797979797979797567e+00,1.000001239671248099e+00
9.898989898989899672e+00,1.000000617117881907e+00
1.000000000000000000e+01,1.000000000000000000e+00
